Exploratory Data Project
…
Both of my datasets were tidy so in order to make them unitidy, I employed the pivot_wider function. This led to individual variables having their own column, which is not tidy. To re-tidy, I used pivot_longer.
When it came time to join both sets, I chose to use inner join because there are so many neighborhoods in New York City, the data would have become too massive and would not have added any value to the analysis. By selecting only for the neighborhoods both sets have in common, the data becomes managable and trends become easier to spot.

#Task 2: Wrangling

comb%>%filter(neighborhood=="chelsea")

## # A tibble: 1,113 x 15
##    neighborhood RESIDENTIAL.UNI… COMMERCIAL.UNITS TOTAL.UNITS LAND.SQUARE.FEET
##    <chr>                   <dbl>            <dbl>       <dbl>            <dbl>
##  1 chelsea                  1.84            0.179        2.04            4092.
##  2 chelsea                  1.84            0.179        2.04            4092.
##  3 chelsea                  1.84            0.179        2.04            4092.
##  4 chelsea                  1.84            0.179        2.04            4092.
##  5 chelsea                  1.84            0.179        2.04            4092.
##  6 chelsea                  1.84            0.179        2.04            4092.
##  7 chelsea                  1.84            0.179        2.04            4092.
##  8 chelsea                  1.84            0.179        2.04            4092.
##  9 chelsea                  1.84            0.179        2.04            4092.
## 10 chelsea                  1.84            0.179        2.04            4092.
## # … with 1,103 more rows, and 10 more variables: GROSS.SQUARE.FEET <dbl>,
## #   YEAR.BUILT <dbl>, TAX.CLASS.AT.TIME.OF.SALE <dbl>, price <int>,
## #   minimum_nights <int>, number_of_reviews <int>, reviews_per_month <dbl>,
## #   calculated_host_listings_count <int>, availability_365 <int>,
## #   neighborhood_group <fct>
…
comb%>%arrange(price)

## # A tibble: 26,206 x 15
##    neighborhood RESIDENTIAL.UNI… COMMERCIAL.UNITS TOTAL.UNITS LAND.SQUARE.FEET
##    <chr>                   <dbl>            <dbl>       <dbl>            <dbl>
##  1 bedfordstuy…            2.63             0.124        2.78            1705.
##  2 bedfordstuy…            2.63             0.124        2.78            1705.
##  3 bedfordstuy…            2.63             0.124        2.78            1705.
##  4 bedfordstuy…            2.63             0.124        2.78            1705.
##  5 bushwick                2.76             0.176        2.94            2123.
##  6 bushwick                2.76             0.176        2.94            2123.
##  7 bushwick                2.76             0.176        2.94            2123.
##  8 greenpoint              1.94             0.160        2.20            1966.
##  9 murrayhill              0.947            0.106        1.08            3052.
## 10 bedfordstuy…            2.63             0.124        2.78            1705.
## # … with 26,196 more rows, and 10 more variables: GROSS.SQUARE.FEET <dbl>,
## #   YEAR.BUILT <dbl>, TAX.CLASS.AT.TIME.OF.SALE <dbl>, price <int>,
## #   minimum_nights <int>, number_of_reviews <int>, reviews_per_month <dbl>,
## #   calculated_host_listings_count <int>, availability_365 <int>,
## #   neighborhood_group <fct>

comb%>% arrange(desc(price))

## # A tibble: 26,206 x 15
##    neighborhood RESIDENTIAL.UNI… COMMERCIAL.UNITS TOTAL.UNITS LAND.SQUARE.FEET
##    <chr>                   <dbl>            <dbl>       <dbl>            <dbl>
##  1 astoria                 2.88            0.174        3.15             2972.
##  2 greenpoint              1.94            0.160        2.20             1966.
##  3 lowereastsi…            1.59            0.298        1.93             2705.
##  4 lowereastsi…            1.59            0.298        1.93             2705.
##  5 tribeca                 0.896           0.0397       0.985           24703.
##  6 clintonhill             2.98            0.0718       3.07             1285.
##  7 chelsea                 1.84            0.179        2.04             4092.
##  8 clintonhill             2.98            0.0718       3.07             1285.
##  9 tribeca                 0.896           0.0397       0.985           24703.
## 10 littleitaly             1.95            0.439        2.44             2643.
## # … with 26,196 more rows, and 10 more variables: GROSS.SQUARE.FEET <dbl>,
## #   YEAR.BUILT <dbl>, TAX.CLASS.AT.TIME.OF.SALE <dbl>, price <int>,
## #   minimum_nights <int>, number_of_reviews <int>, reviews_per_month <dbl>,
## #   calculated_host_listings_count <int>, availability_365 <int>,
## #   neighborhood_group <fct>

comb%>%select(neighborhood,neighborhood_group) %>% distinct() %>% arrange(neighborhood_group)

## # A tibble: 143 x 2
##    neighborhood neighborhood_group
##    <chr>        <fct>             
##  1 baychester   Bronx             
##  2 belmont      Bronx             
##  3 bronxdale    Bronx             
##  4 cityisland   Bronx             
##  5 coopcity     Bronx             
##  6 fieldston    Bronx             
##  7 fordham      Bronx             
##  8 huntspoint   Bronx             
##  9 parkchester  Bronx             
## 10 pelhambay    Bronx             
## # … with 133 more rows

comb%>% select(GROSS.SQUARE.FEET, price)

## # A tibble: 26,206 x 2
##    GROSS.SQUARE.FEET price
##                <dbl> <int>
##  1             1567.    75
##  2             1567.    41
##  3             1567.    83
##  4             1567.    70
##  5             2249.   250
##  6             2249.    50
##  7             2249.   125
##  8             2249.   625
##  9             2249.    34
## 10             2249.   105
## # … with 26,196 more rows

comb%>%mutate(ResUnits_avg=RESIDENTIAL.UNITS/TOTAL.UNITS)

## # A tibble: 26,206 x 16
##    neighborhood RESIDENTIAL.UNI… COMMERCIAL.UNITS TOTAL.UNITS LAND.SQUARE.FEET
##    <chr>                   <dbl>            <dbl>       <dbl>            <dbl>
##  1 ardenheights             1.12          0.00360        1.13            2152.
##  2 ardenheights             1.12          0.00360        1.13            2152.
##  3 ardenheights             1.12          0.00360        1.13            2152.
##  4 ardenheights             1.12          0.00360        1.13            2152.
##  5 arrochar                 1.33          0.111          1.44            4216.
##  6 arrochar                 1.33          0.111          1.44            4216.
##  7 arrochar                 1.33          0.111          1.44            4216.
##  8 arrochar                 1.33          0.111          1.44            4216.
##  9 arrochar                 1.33          0.111          1.44            4216.
## 10 arrochar                 1.33          0.111          1.44            4216.
## # … with 26,196 more rows, and 11 more variables: GROSS.SQUARE.FEET <dbl>,
## #   YEAR.BUILT <dbl>, TAX.CLASS.AT.TIME.OF.SALE <dbl>, price <int>,
## #   minimum_nights <int>, number_of_reviews <int>, reviews_per_month <dbl>,
## #   calculated_host_listings_count <int>, availability_365 <int>,
## #   neighborhood_group <fct>, ResUnits_avg <dbl>
…
comb%>% group_by(neighborhood_group) %>% summarize(meanavail=mean(availability_365, na.rm = T))

## # A tibble: 5 x 2
##   neighborhood_group meanavail
##   <fct>                  <dbl>
## 1 Bronx                  170. 
## 2 Brooklyn               106. 
## 3 Manhattan               98.7
## 4 Queens                 144. 
## 5 Staten Island          194.

comb%>% filter(neighborhood_group=="Staten Island")%>%group_by(neighborhood)%>% summarize(meanavail=mean(availability_365, na.rm = T)) %>% arrange(desc(meanavail))

## # A tibble: 33 x 2
##    neighborhood  meanavail
##    <chr>             <dbl>
##  1 willowbrook        351 
##  2 richmondtown       300 
##  3 tottenville        268.
##  4 arrochar           256.
##  5 concord            256.
##  6 grantcity          240.
##  7 midlandbeach       236 
##  8 stapleton          216.
##  9 tompkinsville      209.
## 10 huguenot           208 
## # … with 23 more rows
…
